…
``` r
class(im)
```

    ## [1] "interaction_model"

In this “matrix like thing,” the `month & day` index the rows and `dest`
indexes the columns. This is because `month & day` come before the
interaction `*` in the formula and `dest` comes afterwords.

``` r
im$row_universe
```

    ## # A tibble: 365 × 4
    ##    month   day     n row_num
    ##    <int> <int> <int>   <int>
    ##  1    11    27  1014       1
    ##  2     7    11  1006       2
    ##  3     7     8  1004       3
    ##  4     7    10  1004       4
    ##  5    12     2  1004       5
    ##  6     7    18  1003       6
    ##  7     7    25  1003       7
    ##  8     7    12  1002       8
    ##  9     7     9  1001       9
    ## 10     7    17  1001      10
    ## # ℹ 355 more rows

``` r
im$column_universe
```

    ## # A tibble: 105 × 3
    ##    dest      n col_num
    ##    <chr> <int>   <int>
    ##  1 ORD   17283       1
    ##  2 ATL   17215       2
    ##  3 LAX   16174       3
    ##  4 BOS   15508       4
    ##  5 MCO   14082       5
    ##  6 CLT   14064       6
    ##  7 SFO   13331       7
    ##  8 FLL   12055       8
    ##  9 MIA   11728       9
    ## 10 DCA    9705      10
    ## # ℹ 95 more rows

Then, “the matrix” is in sparse triplet form:

``` r
im$interaction_tibble
```

    ## # A tibble: 31,229 × 3
    ##    row_num col_num outcome
    ##      <int>   <int>   <dbl>
    ##  1       1       1      52
    ##  2       1       2      51
    ##  3       1       3      49
    ##  4       1       4      43
    ##  5       1       5      40
    ##  6       1       6      42
    ##  7       1       7      43
    ##  8       1       8      38
    ##  9       1       9      37
    ## 10       1      10      28
    ## # ℹ 31,219 more rows
…
