Analyzing the CRAN Dependency Graph with longpca • longpca
…
library(tidyverse)
#> ── Attaching core tidyverse packages ──────────────────────── tidyverse 2.0.0 ──
#> ✔ dplyr     1.1.4     ✔ readr     2.1.5
#> ✔ forcats   1.0.0     ✔ stringr   1.5.1
#> ✔ ggplot2   3.5.0     ✔ tibble    3.2.1
#> ✔ lubridate 1.9.3     ✔ tidyr     1.3.1
#> ✔ purrr     1.0.2     
#> ── Conflicts ────────────────────────────────────────── tidyverse_conflicts() ──
#> ✖ dplyr::filter() masks stats::filter()
#> ✖ dplyr::lag()    masks stats::lag()
#> ℹ Use the conflicted package (<http://conflicted.r-lib.org/>) to force all conflicts to become errors
library(longpca)
# This data on CRAN packages is pre-loaded in longpca. It was downloaded in February 2024.  
all_packages
#> # A tibble: 20,319 × 17
#>    Package  Version Priority Depends Imports LinkingTo Suggests Enhances License
#>    <chr>    <chr>   <chr>    <chr>   <chr>   <chr>     <chr>    <chr>    <chr>  
#>  1 A3       1.0.0   NA       R (>= … NA      NA        randomF… NA       GPL (>…
#>  2 AalenJo… 1.0     NA       NA      NA      NA        knitr, … NA       GPL (>…
#>  3 AATtools 0.0.2   NA       R (>= … magrit… NA        NA       NA       GPL-3  
#>  4 ABACUS   1.0.0   NA       R (>= … ggplot… NA        rmarkdo… NA       GPL-3  
#>  5 abasequ… 0.1.0   NA       NA      NA      NA        NA       NA       GPL-3  
#>  6 abbrevi… 0.1     NA       NA      NA      NA        testtha… NA       GPL-3  
#>  7 abc      2.2.1   NA       R (>= … NA      NA        NA       NA       GPL (>…
#>  8 abc.data 1.0     NA       R (>= … NA      NA        NA       NA       GPL (>…
#>  9 ABC.RAP  0.9.0   NA       R (>= … graphi… NA        knitr, … NA       GPL-3  
#> 10 ABCanal… 1.2.1   NA       R (>= … plotrix NA        NA       NA       GPL-3  
#> # ℹ 20,309 more rows
#> # ℹ 8 more variables: License_is_FOSS <chr>, License_restricts_use <chr>,
#> #   OS_type <chr>, Archs <chr>, MD5sum <chr>, NeedsCompilation <chr>,
#> #   File <chr>, Repository <chr>

# You can download the most recent version in this fashion:
# all_packages = available.packages() |> as_tibble()
# if you download fresh data, the specific interpretations below are likely to not be sensible.  

all_packages |> select(Package, Imports)
#> # A tibble: 20,319 × 2
#>    Package       Imports                              
#>    <chr>         <chr>                                
#>  1 A3            NA                                   
#>  2 AalenJohansen NA                                   
#>  3 AATtools      magrittr, dplyr, doParallel, foreach 
#>  4 ABACUS        ggplot2 (>= 3.1.0), shiny (>= 1.3.1),
#>  5 abasequence   NA                                   
#>  6 abbreviate    NA                                   
#>  7 abc           NA                                   
#>  8 abc.data      NA                                   
#>  9 ABC.RAP       graphics, stats, utils               
#> 10 ABCanalysis   plotrix                              
#> # ℹ 20,309 more rows

In particular, all_packages contains the
“Imports-dependency-graph” (idg) as a comma separated string. The key
function make_interaction_model has an argument
parse_text that is built for studying document-term
interactions and can easily extract this information:

# in make_interaction_model, the ... arguments go to tidytext::unnest_tokens for the text parsing.  In this case, we do not want to make the words lower case (because package names are case sensitive and that might be important later)
idg = make_interaction_model(all_packages,
                             ~Package*Imports,
                             parse_text = TRUE, 
                             to_lower = FALSE)
idg
#> $row_universe
#> # A tibble: 20,319 × 3
#>    Package                n row_num
#>    <chr>              <int>   <int>
#>  1 Seurat                64       1
#>  2 tidyverse             60       2
#>  3 radiant.data          58       3
#>  4 radiant.model         58       4
#>  5 SSDM                  55       5
#>  6 BasketballAnalyzeR    53       6
#>  7 tRigon                49       7
#>  8 AFM                   48       8
#>  9 dextergui             48       9
#> 10 proteus               48      10
#> # ℹ 20,309 more rows
#> 
#> $column_universe
#> # A tibble: 6,230 × 4
#>    from_text token        n col_num
#>    <chr>     <chr>    <int>   <int>
#>  1 Imports   stats     5442       1
#>  2 Imports   utils     3423       2
#>  3 Imports   dplyr     3299       3
#>  4 Imports   methods   3210       4
#>  5 Imports   ggplot2   3135       5
#>  6 Imports   Rcpp      2548       6
#>  7 Imports   rlang     2172       7
#>  8 Imports   graphics  2158       8
#>  9 Imports   magrittr  1954       9
#> 10 Imports   stringr   1698      10
#> # ℹ 6,220 more rows
…
The first insignificant p-value is the 64th. So, the code gives
$estimated_dimension to be 63. However, even after 64,
there are some significant p-values. The first negative Z-score happens
at the 90th dimension. So, the decay to insignificance is slow and I am
certain that there is signal after the 63rd dimension.

For ease of illustration, will proceed with k=11
dimensions. The first 10 Z-scores in eicv seem to be a bit
larger than the rest.

pcs = pca(idg, k = 11)
pcs
#> # A tibble: 20,319 × 16
#>    Package     n row_num degree weighted_degree pc_01_rows pc_02_rows pc_03_rows
#>    <chr>   <int>   <int>  <int>           <dbl>      <dbl>      <dbl>      <dbl>
#>  1 Seurat     64       1     64              64       3.84      1.51      -1.02 
#>  2 tidyve…    60       2     58              60       4.16     -4.21       1.49 
#>  3 radian…    58       3     57              58       3.95     -2.46      -1.00 
#>  4 radian…    58       4     57              58       3.70     -1.61       0.124
#>  5 SSDM       55       5     55              55       3.10      1.87       0.444
#>  6 Basket…    53       6     51              53       3.19      1.21      -0.571
#>  7 tRigon     49       7     46              49       3.16     -0.238     -1.02 
#>  8 AFM        48       8     43              48       3.26      1.60       0.104
#>  9 dexter…    48       9     45              48       3.76     -1.12      -1.05 
#> 10 proteus    48      10     44              48       3.47     -0.305      2.68 
#> # ℹ 20,309 more rows
#> # ℹ 8 more variables: pc_04_rows <dbl>, pc_05_rows <dbl>, pc_06_rows <dbl>,
#> #   pc_07_rows <dbl>, pc_08_rows <dbl>, pc_09_rows <dbl>, pc_10_rows <dbl>,
#> #   pc_11_rows <dbl>
#> # A tibble: 6,230 × 17
#>    from_text token        n col_num degree weighted_degree pc_01_columns
#>    <chr>     <chr>    <int>   <int>  <int>           <dbl>         <dbl>
#>  1 Imports   stats     5442       1   5442            5442         14.5 
#>  2 Imports   utils     3423       2   3423            3423         13.4 
#>  3 Imports   dplyr     3299       3   3299            3299         16.8 
#>  4 Imports   methods   3210       4   3210            3210         12.1 
#>  5 Imports   ggplot2   3135       5   3135            3135         14.4 
#>  6 Imports   Rcpp      2548       6   2548            2548          8.93
#>  7 Imports   rlang     2172       7   2172            2172         14.3 
#>  8 Imports   graphics  2158       8   2158            2158          9.29
#>  9 Imports   magrittr  1954       9   1954            1954         13.1 
#> 10 Imports   stringr   1698      10   1698            1698         12.3 
#> # ℹ 6,220 more rows
#> # ℹ 10 more variables: pc_02_columns <dbl>, pc_03_columns <dbl>,
#> #   pc_04_columns <dbl>, pc_05_columns <dbl>, pc_06_columns <dbl>,
#> #   pc_07_columns <dbl>, pc_08_columns <dbl>, pc_09_columns <dbl>,
#> #   pc_10_columns <dbl>, pc_11_columns <dbl>
…
all_packages |> count(License) |> arrange(desc(n))
#> # A tibble: 160 × 2
#>    License                  n
#>    <chr>                <int>
#>  1 GPL-3                 4584
#>  2 MIT + file LICENSE    4216
#>  3 GPL (>= 2)            4179
#>  4 GPL-2                 2380
#>  5 GPL (>= 3)            1706
#>  6 GPL                    440
#>  7 GPL-2 | GPL-3          337
#>  8 CC0                    226
#>  9 LGPL-3                 155
#> 10 GPL-3 | file LICENSE   139
#> # ℹ 150 more rows
…
data_selected = all_packages |> 
  left_join(spcs$column_features |>
              rename(Package = token) , by = "Package") |>
  left_join(spcs$row_features, by = "Package") |> 
  select(response = MIT, contains("vpc_"))

logistic_model <- glm(response ~ .-1, data = data_selected, family = binomial())
#> Warning: glm.fit: fitted probabilities numerically 0 or 1 occurred
broom::tidy(logistic_model)
#> # A tibble: 22 × 5
#>    term           estimate std.error statistic  p.value
#>    <chr>             <dbl>     <dbl>     <dbl>    <dbl>
#>  1 vpc_01_columns   0.403     0.0991      4.07 4.72e- 5
#>  2 vpc_02_columns  -1.67      0.186      -8.95 3.50e-19
#>  3 vpc_03_columns  -0.185     0.178      -1.04 3.00e- 1
#>  4 vpc_04_columns  -0.0621    0.0368     -1.69 9.13e- 2
#>  5 vpc_05_columns  -2.33      0.235      -9.90 4.27e-23
#>  6 vpc_06_columns   0.169     0.0626      2.71 6.76e- 3
#>  7 vpc_07_columns  -1.30      0.175      -7.42 1.19e-13
#>  8 vpc_08_columns   0.224     0.0706      3.18 1.48e- 3
#>  9 vpc_09_columns   0.585     0.0908      6.45 1.15e-10
#> 10 vpc_10_columns  -0.550     0.120      -4.56 5.00e- 6
#> # ℹ 12 more rows
…
