Intro to longpca with nycflights data • longpca
…
There are three functions that you might like diagnose,
pick_dim, and plot that are explained
below.

A deeper look inside the code.

To illustrate the code, consider the popular data example
nycflights13 which contains a row for every flight
departing from the 3 main New York City airports during 2013 (LGA, JFK,
and EWR). It includes things like date, destination, and information
about delays.

library(nycflights13)
flights
#> # A tibble: 336,776 × 19
#>     year month   day dep_time sched_dep_time dep_delay arr_time sched_arr_time
#>    <int> <int> <int>    <int>          <int>     <dbl>    <int>          <int>
#>  1  2013     1     1      517            515         2      830            819
#>  2  2013     1     1      533            529         4      850            830
#>  3  2013     1     1      542            540         2      923            850
#>  4  2013     1     1      544            545        -1     1004           1022
#>  5  2013     1     1      554            600        -6      812            837
#>  6  2013     1     1      554            558        -4      740            728
#>  7  2013     1     1      555            600        -5      913            854
#>  8  2013     1     1      557            600        -3      709            723
#>  9  2013     1     1      557            600        -3      838            846
#> 10  2013     1     1      558            600        -2      753            745
#> # ℹ 336,766 more rows
#> # ℹ 11 more variables: arr_delay <dbl>, carrier <chr>, flight <int>,
#> #   tailnum <chr>, origin <chr>, dest <chr>, air_time <dbl>, distance <dbl>,
#> #   hour <dbl>, minute <dbl>, time_hour <dttm>
…
Model first, not matrix first.

To make maximum use of this package, it is helpful to think about
models, not matrices. This will become clearer as time
goes on. Each of the key functions in this package is handling a class
interaction_model:

im = make_interaction_model(flights, formula)
im
#> $row_universe
#> # A tibble: 365 × 4
#>    month   day     n row_num
#>    <int> <int> <int>   <int>
#>  1    11    27  1014       1
#>  2     7    11  1006       2
#>  3     7     8  1004       3
#>  4     7    10  1004       4
#>  5    12     2  1004       5
#>  6     7    18  1003       6
#>  7     7    25  1003       7
#>  8     7    12  1002       8
#>  9     7     9  1001       9
#> 10     7    17  1001      10
#> # ℹ 355 more rows
#> 
#> $column_universe
#> # A tibble: 105 × 3
#>    dest      n col_num
#>    <chr> <int>   <int>
#>  1 ORD   17283       1
#>  2 ATL   17215       2
#>  3 LAX   16174       3
#>  4 BOS   15508       4
#>  5 MCO   14082       5
#>  6 CLT   14064       6
#>  7 SFO   13331       7
#>  8 FLL   12055       8
#>  9 MIA   11728       9
#> 10 DCA    9705      10
#> # ℹ 95 more rows
…
