parse_text inside longpca • longpca
…
Recall that the basic use of make_interaction_model in
the flights data:

library(nycflights13)
formula =  ~ (month & day)*(dest)
im = make_interaction_model(flights, formula)
# pcs = pca(im, k = 6)

In this example, the formula is
~ (month & day)*(dest). So, the rows are indexed by the
unique values of month and day and the columns
are indexed by the unique values of dest.

im$row_universe
#> # A tibble: 365 × 4
#>    month   day     n row_num
#>    <int> <int> <int>   <int>
#>  1    11    27  1014       1
#>  2     7    11  1006       2
#>  3     7     8  1004       3
#>  4     7    10  1004       4
#>  5    12     2  1004       5
#>  6     7    18  1003       6
#>  7     7    25  1003       7
#>  8     7    12  1002       8
#>  9     7     9  1001       9
#> 10     7    17  1001      10
#> # ℹ 355 more rows
im$column_universe
#> # A tibble: 105 × 3
#>    dest      n col_num
#>    <chr> <int>   <int>
#>  1 ORD   17283       1
#>  2 ATL   17215       2
#>  3 LAX   16174       3
#>  4 BOS   15508       4
#>  5 MCO   14082       5
#>  6 CLT   14064       6
#>  7 SFO   13331       7
#>  8 FLL   12055       8
#>  9 MIA   11728       9
#> 10 DCA    9705      10
#> # ℹ 95 more rows

If our data contains sentences, or sequences of id’s
(e.g. words/bi-grams/etc), then the “unique values” need to first be
parsed/extracted. For example, loaded into longpca is a toy
data set all_packages. It is about 20000 rows. Each row
gives information about one R package.

# you can get a fresh version here:
# all_packages = available.packages() %>% as_tibble()
all_packages |> select(Package,  Imports)
#> # A tibble: 20,319 × 2
#>    Package       Imports                              
#>    <chr>         <chr>                                
#>  1 A3            NA                                   
#>  2 AalenJohansen NA                                   
#>  3 AATtools      magrittr, dplyr, doParallel, foreach 
#>  4 ABACUS        ggplot2 (>= 3.1.0), shiny (>= 1.3.1),
#>  5 abasequence   NA                                   
#>  6 abbreviate    NA                                   
#>  7 abc           NA                                   
#>  8 abc.data      NA                                   
#>  9 ABC.RAP       graphics, stats, utils               
#> 10 ABCanalysis   plotrix                              
#> # ℹ 20,309 more rows

Notice how the column Imports gives a “csv” of other
packages. We can “extract” these values with
parse_text = TRUE:

im_imports = make_interaction_model(all_packages, ~Package*Imports, parse_text= TRUE)
im_imports$row_universe
#> # A tibble: 20,319 × 3
#>    Package                n row_num
#>    <chr>              <int>   <int>
#>  1 Seurat                64       1
#>  2 tidyverse             60       2
#>  3 radiant.data          58       3
#>  4 radiant.model         58       4
#>  5 SSDM                  55       5
#>  6 BasketballAnalyzeR    53       6
#>  7 tRigon                49       7
#>  8 AFM                   48       8
#>  9 dextergui             48       9
#> 10 proteus               48      10
#> # ℹ 20,309 more rows
im_imports$column_universe
#> # A tibble: 6,230 × 4
#>    from_text token        n col_num
#>    <chr>     <chr>    <int>   <int>
#>  1 Imports   stats     5442       1
#>  2 Imports   utils     3423       2
#>  3 Imports   dplyr     3299       3
#>  4 Imports   methods   3210       4
#>  5 Imports   ggplot2   3135       5
#>  6 Imports   rcpp      2548       6
#>  7 Imports   rlang     2172       7
#>  8 Imports   graphics  2158       8
#>  9 Imports   magrittr  1954       9
#> 10 Imports   stringr   1698      10
#> # ℹ 6,220 more rows
…
Additional arguments to make_interaction_model are
passed off to tidytext::unest_tokens. For example, by
default it puts the imported packages into lower case. We can turn that
off…

im_imports = make_interaction_model(all_packages, ~Package*Imports, parse_text= TRUE, to_lower = FALSE)
im_imports$column_universe
#> # A tibble: 6,230 × 4
#>    from_text token        n col_num
#>    <chr>     <chr>    <int>   <int>
#>  1 Imports   stats     5442       1
#>  2 Imports   utils     3423       2
#>  3 Imports   dplyr     3299       3
#>  4 Imports   methods   3210       4
#>  5 Imports   ggplot2   3135       5
#>  6 Imports   Rcpp      2548       6
#>  7 Imports   rlang     2172       7
#>  8 Imports   graphics  2158       8
#>  9 Imports   magrittr  1954       9
#> 10 Imports   stringr   1698      10
#> # ℹ 6,220 more rows
…
#> # A tibble: 6 × 3
#>   measurement     Package `from_text & token`
#>   <chr>             <dbl>               <dbl>
#> 1 number_of_items    1094                7878
#> 2 average_degree       38                   5
#> 3 median_degree        33                   1
#> 4 percent_le_1          0                  57
#> 5 percent_le_2          0                  71
#> 6 percent_le_3          0                  77
im_description$column_universe
#> # A tibble: 7,878 × 4
#>    from_text   token         n col_num
#>    <chr>       <chr>     <int>   <int>
#>  1 Description and        2571       1
#>  2 Description the        1999       2
#>  3 Description of         1388       3
#>  4 Description for        1350       4
#>  5 Description to         1104       5
#>  6 Description a          1013       6
#>  7 Description in          722       7
#>  8 Description functions   581       8
#>  9 Description data        541       9
#> 10 Description package     515      10
#> # ℹ 7,868 more rows

Here we see the stopwords. These will form high degree nodes in your
interaction_model graph. A factor that loads heavily on
these is often a factor that indicates “document length”.

You can also parse multiple columns with the &:

im_imports_authors = make_interaction_model(top_packages, ~Package*(Imports&Author&Description&Title), parse_text = TRUE)
im_imports_authors$row_universe
#> # A tibble: 1,094 × 3
#>    Package             n row_num
#>    <chr>           <int>   <int>
#>  1 broom             671       1
#>  2 DescTools         562       2
#>  3 ff                488       3
#>  4 knitr             430       4
#>  5 ape               411       5
#>  6 spatstat          392       6
#>  7 spdep             381       7
#>  8 netmeta           346       8
#>  9 Seurat            339       9
#> 10 spatstat.linnet   333      10
#> # ℹ 1,084 more rows
im_imports_authors$column_universe
#> # A tibble: 17,696 × 4
#>    from_text   token         n col_num
#>    <chr>       <chr>     <int>   <int>
#>  1 Author      ctb        2744       1
#>  2 Description and        2571       2
#>  3 Author      aut        2077       3
#>  4 Description the        1999       4
#>  5 Description of         1388       5
#>  6 Description for        1350       6
#>  7 Description to         1104       7
#>  8 Author      https      1048       8
#>  9 Description a          1013       9
#> 10 Author      orcid.org  1008      10
#> # ℹ 17,686 more rows
…
